<svg xmlns="http://www.w3.org/2000/svg" width="31.568" height="26.155" viewBox="0 0 31.568 26.155">
  <g id="video" transform="translate(0 -43.894)">
    <path id="Path_3" data-name="Path 3" d="M331,191.871l8.216-5.417L331,181.037Zm1.85-7.4,3.006,1.982-3.006,1.982Z" transform="translate(-310.592 -128.687)" fill="#ed2b6f"/>
    <path id="Path_4" data-name="Path 4" d="M15.96,47.524a19.694,19.694,0,0,0-11.336-3.63H3.7v3.131A35,35,0,0,0,0,47.8V70.049a30.368,30.368,0,0,1,15.56-.287l.224.056.224-.056a30.321,30.321,0,0,1,15.56.287V47.8A32.027,32.027,0,0,0,15.96,47.524ZM1.85,67.7V49.249c.612-.137,1.23-.255,1.85-.353V66.09h.925a17.747,17.747,0,0,1,5.87,1.011A31.69,31.69,0,0,0,1.85,67.7Zm13.009-.554a19.606,19.606,0,0,0-9.31-2.886V45.769a17.786,17.786,0,0,1,9.31,3.245Zm14.859.554a31.7,31.7,0,0,0-13.009,0V49.249a29.829,29.829,0,0,1,13.009,0Z" fill="#ed2b6f"/>
  </g>
</svg>
